mondo,muri,feromone,devStadard,aad
100,1,0,32.75668,0.405,0.05383 
100,1,1,11.16094,0.275,0.03281 
125,1,0,82.8387,0.335,0.09613 
125,1,1,53.71654,0.31667,0.09632 
150,1,0,157.00955,0.2975,0.11239 
150,1,1,65.66785,0.28833,0.08358 
175,1,0,301.54311,0.32,0.16561 
175,1,1,119.53981,0.32,0.11237 
200,1,0,167.93451,0.29,0.07435 
200,1,1,193.96204,0.24182,0.14142 
225,1,0,154.2552,0.34833,0.04764 
225,1,1,313.02601,0.24286,0.16736 
250,1,0,518.98966,0.28667,0.13465 
250,1,1,393.73293,0.22714,0.16219 
30,1,0,9.32291,0.3425,0.11914 
30,1,1,2.65832,0.38833,0.05821 
40,1,0,12.49,0.2825,0.10585 
40,1,1,5.4037,0.245,0.07611 
50,1,0,29.41088,0.355,0.16477 
50,1,1,10.45785,0.32667,0.09976 
60,1,0,22.81812,0.345,0.09547 
60,1,1,14.23259,0.32833,0.09606 
75,1,0,35.3683,0.4075,0.10026 
75,1,1,33.82159,0.29,0.15916 
85,1,0,44.47471,0.3525,0.09503 
85,1,1,14.62076,0.32,0.05964 
100,0,0,57.3607,0.3525,0.126 
100,0,1,38.32362,0.25,0.15739 
125,0,0,113.75522,0.3375,0.14197 
125,0,1,83.15928,0.28,0.21196 
150,0,0,182.76852,0.2875,0.17137 
150,0,1,67.41933,0.22833,0.13435 
175,0,0,106.35475,0.41,0.0732 
175,0,1,100.90524,0.24667,0.14695 
200,0,0,286.10444,0.25778,0.14743 
200,0,1,151.47259,0.19444,0.15312 
225,0,0,357.94827,0.24667,0.13731 
225,0,1,202.24342,0.315,0.15195 
250,0,0,324.11027,0.32,0.0976 
250,0,1,337.33188,0.18833,0.20407 
30,0,0,5.96518,0.3375,0.10797 
30,0,1,1.8619,0.29,0.05078 
40,0,0,8.73689,0.33,0.0887 
40,0,1,3.57771,0.33167,0.0688 
50,0,0,14.85485,0.4025,0.10923 
50,0,1,10.12752,0.26833,0.1493 
60,0,0,31.27699,0.27,0.16397 
60,0,1,11.28568,0.26,0.10275 
75,0,0,34.91299,0.36,0.13678 
75,0,1,16.9794,0.33333,0.12259 
85,0,0,23.66432,0.3275,0.06037 
85,0,1,14.60708,0.27,0.08435 
